{
  "dictionaryType": "Толковый",
  "queryPathForAll": "resources/dictionaryQueries/forAll/explanatory/query.txt",
  "queryPathForOne": "resources/dictionaryQueries/forOne/explanatory/query.txt",
  "queryFieldForAll": "lemma"
}